[
 {
   "username": "Ellazy7"
 },
 {
   "username": "shophia6739"
 },
 {
   "username": "hello"
 },
 {
   "username": "Taylor"
 },
 {
   "username": "s_whIte1702"
 },
 {
   "username": "jadeaerts_g2020"
 },
 {
   "username": "kiraluci20"
 },
 {
   "username": "mariadesuja20"
 },
 {
   "username": "angel.mh15"
 },
 {
   "username": "Kylaa6030"
 },
 {
   "username": "Jacklin6148"
 },
 {
   "username": "Natalie_lila"
 },
 {
   "username": "Lily_s2731"
 },
 {
   "username": "alicee3763"
 },
 {
   "username": "Jeljara2020"
 },
 {
   "username": "Jasmine.508"
 },
 {
   "username": "Cutebaby2783"
 },
 {
   "username": "Tracyrowland147"
 },
 {
   "username": "Oliviahub121"
 },
 {
   "username": "Lily-jayde1"
 },
 {
   "username": "shophia6739"
 },
 {
   "username": "mariadesuja20"
 },
 {
   "username": "s_whIte1702"
 },
 {
   "username": "hello"
 },
 {
   "username": "coyte_s2020"
 },
 {
   "username": "Ellazy7"
 },
 {
   "username": "Taylor"
 },
 {
   "username": "jadeaerts_g2020"
 },
 {
   "username": "kiraluci20"
 },
 {
   "username": "angel.mh15"
 },
 {
   "username": "Kylaa6030"
 },
 {
   "username": "Jacklin6148"
 },
 {
   "username": "Natalie_lila"
 },
 {
   "username": "Lily_s2731"
 },
 {
   "username": "alicee3763"
 },
 {
   "username": "Jeljara2020"
 },
 {
   "username": "Jasmine.508"
 },
 {
   "username": "Cutebaby2783"
 },
 {
   "username": "Tracyrowland147"
 },
 {
   "username": "Oliviahub121"
 },
 {
   "username": "Laney.babi"
 },
 {
   "username": "Sarah_160505"
 },
 {
   "username": "Sfia6456"
 },
 {
   "username": "eevva406"
 },
 {
   "username": "cake.620"
 },
 {
   "username": "arhodda2020"
 },
 {
   "username": "Johanne_desja19"
 },
 {
   "username": "dyfs_d2020"
 },
 {
   "username": "Magi6229"
 },
 {
   "username": "Linda_jacks8064"
 },
 {
   "username": "tiyamoa"
 },
 {
   "username": "Rethika"
 },
 {
   "username": "kennedypremi"
 },
 {
   "username": "l-5850"
 },
 {
   "username": "Makena9935"
 },
 {
   "username": "iegei_g2020"
 },
 {
   "username": "ameli3557"
 },
 {
   "username": "verawisell7911"
 },
 {
   "username": "emma2"
 },
 {
   "username": "kandyy324"
 },
 {
   "username": "kandyy324"
 },
 {
   "username": "ajmcinnis"
 },
 {
   "username": "tipenedarro2702"
 },
 {
   "username": "Just.minaa"
 },
 {
   "username": "Mummy_heather13"
 },
 {
   "username": "Chloe22799"
 },
 {
   "username": "Astro8385"
 },
 {
   "username": "slsalinas2020"
 },
 {
   "username": "e_9256"
 },
 {
   "username": "alinay32i"
 },
 {
   "username": "eve.m8602"
 },
 {
   "username": "Mansyhot2020"
 },
 {
   "username": "queen"
 },
 {
   "username": "SiennaD"
 },
 {
   "username": "laytoyathom7314"
 },
 {
   "username": "ava99777"
 },
 {
   "username": "Payel8844"
 },
 {
   "username": "Jvousnike7"
 },
 {
   "username": "Lesaw699"
 },
 {
   "username": "lunasofia"
 },
 {
   "username": "lunasofia"
 },
 {
   "username": "Carastobo"
 },
 {
   "username": "k_siniranta20"
 },
 {
   "username": "angleana501"
 },
 {
   "username": "Ulrika9108"
 },
 {
   "username": "sonnyannagu8327"
 },
 {
   "username": "angle_ana5675"
 },
 {
   "username": "hannahsspremium"
 },
 {
   "username": "e_7187"
 },
 {
   "username": "queen49606"
 },
 {
   "username": "Chaz172000"
 },
 {
   "username": "aliya"
 },
 {
   "username": "queen54352"
 },
 {
   "username": "Lana_st6000"
 },
 {
   "username": "lena_lee4059"
 },
 {
   "username": "Peya"
 },
 {
   "username": "llena2844"
 },
 {
   "username": "sisabela7681"
 },
 {
   "username": "jenni25782"
 },
 {
   "username": "jenni_jei2020"
 },
 {
   "username": "jenni_jei2020"
 },
 {
   "username": "Aslycole"
 },
 {
   "username": "jaraliya2020"
 },
 {
   "username": "h_hana6322"
 },
 {
   "username": "Alyleean"
 },
 {
   "username": "hanah4494"
 },
 {
   "username": "sarah_sar4174"
 },
 {
   "username": "sarahr6703"
 },
 {
   "username": "same_ros2020"
 },
 {
   "username": "juhi_july20"
 },
 {
   "username": "eemi4502"
 },
 {
   "username": "gi_gi7611"
 },
 {
   "username": "Suranne"
 },
 {
   "username": "MariahFlores"
 },
 {
   "username": "Marry_rosse20"
 },
 {
   "username": "mollywannasnack"
 },
 {
   "username": "sadiya"
 },
 {
   "username": "emilie_ss2020"
 },
 {
   "username": "sofia_siren"
 },
 {
   "username": "Jessicawill4268"
 },
 {
   "username": "Jessicawill4268"
 },
 {
   "username": "flamboyantpuppy"
 },
 {
   "username": "emmyandrollo"
 },
 {
   "username": "Annalun2168"
 },
 {
   "username": "Lucy"
 },
 {
   "username": "Mary_Lucas"
 },
 {
   "username": "Michelle"
 },
 {
   "username": "melissax8341"
 },
 {
   "username": "Missjadoriii"
 },
 {
   "username": "emma-9972"
 },
 {
   "username": "rome_ros20"
 },
 {
   "username": "chloechlo99"
 },
 {
   "username": "kellyw4639"
 },
 {
   "username": "Stupid.bitc2020"
 },
 {
   "username": "Lolita44654"
 },
 {
   "username": "yas-kendrick94"
 },
 {
   "username": "asfara935"
 },
 {
   "username": "Lovesyou1999"
 },
 {
   "username": "Evana08h"
 },
 {
   "username": "alexis.olguin"
 },
 {
   "username": "alexis.olguin"
 },
 {
   "username": "arianaherry"
 },
 {
   "username": "emmadenney2020"
 },
 {
   "username": "amandakt2020"
 },
 {
   "username": "eva_q4415"
 },
 {
   "username": "lyla"
 },
 {
   "username": "Timort"
 },
 {
   "username": "Queenflvcko2"
 },
 {
   "username": "Fabby2621"
 },
 {
   "username": "Emmahunsinger"
 },
 {
   "username": "christy_mac20"
 },
 {
   "username": "christopheradas"
 },
 {
   "username": "Beans_0222"
 },
 {
   "username": "Jechika"
 },
 {
   "username": "Violetmyer7"
 },
 {
   "username": "Anan"
 },
 {
   "username": "Rita.s100"
 },
 {
   "username": "Mollyt1222"
 },
 {
   "username": "mildred"
 },
 {
   "username": "Malayzia6545"
 },
 {
   "username": "emmaaguilar9518"
 },
 {
   "username": "Payton_jess2020"
 },
 {
   "username": "juliet5218"
 },
 {
   "username": "summer"
 },
 {
   "username": "kimberlyje20"
 },
 {
   "username": "Opal2040"
 },
 {
   "username": "Jane_mason1754"
 },
 {
   "username": "monax4309"
 },
 {
   "username": "Nanse_y"
 },
 {
   "username": "liliya6284"
 },
 {
   "username": "Jenniferxxvids"
 },
 {
   "username": "Chord"
 },
 {
   "username": "t_layers2020"
 },
 {
   "username": "Julieward4838"
 },
 {
   "username": "alinakate5050"
 },
 {
   "username": "annaemma6492"
 },
 {
   "username": "Itzbaby_c"
 },
 {
   "username": "roem_rs20"
 },
 {
   "username": "Jesica_jenny20"
 },
 {
   "username": "g_ryan6150"
 },
 {
   "username": "Molly78"
 },
 {
   "username": "xfareenax"
 },
 {
   "username": "Sara_weld20"
 },
 {
   "username": "Camilla4629"
 },
 {
   "username": "Kiya"
 },
 {
   "username": "jamy8808"
 },
 {
   "username": "shirleycutie1"
 },
 {
   "username": "eemi8728"
 },
 {
   "username": "sky_2407"
 },
 {
   "username": "Jaikela5897"
 },
 {
   "username": "jeni_us1"
 },
 {
   "username": "jeannie_sulli20"
 },
 {
   "username": "angel_nisba"
 },
 {
   "username": "osamajabbar"
 },
 {
   "username": "isellmynudes449"
 },
 {
   "username": "JINU"
 },
 {
   "username": "Mckenzieight"
 },
 {
   "username": "Faliha"
 },
 {
   "username": "Aisa"
 },
 {
   "username": "Alive2862"
 },
 {
   "username": "sgirl7211"
 },
 {
   "username": "Niyaqueen"
 },
 {
   "username": "Julia55180"
 },
 {
   "username": "trendytees20"
 },
 {
   "username": "Bernard5809"
 },
 {
   "username": "bettina.8952"
 },
 {
   "username": "Yari7336"
 },
 {
   "username": "Alexis_monr5322"
 },
 {
   "username": "Sarahmegan2030"
 },
 {
   "username": "rgrace05e"
 },
 {
   "username": "nataliemaie4591"
 },
 {
   "username": "dana_d965170"
 },
 {
   "username": "Michealj"
 },
 {
   "username": "jasminhuber1845"
 },
 {
   "username": "Shonyhot"
 },
 {
   "username": "rimor5212"
 },
 {
   "username": "Olive"
 },
 {
   "username": "oliviaisla93"
 },
 {
   "username": "Amedlin43"
 },
 {
   "username": "Lucyhunter2020"
 },
 {
   "username": "o_va6570"
 },
 {
   "username": "Liag595"
 },
 {
   "username": "tatjana4069"
 },
 {
   "username": "Goddessalexis"
 },
 {
   "username": "aliza.2738"
 },
 {
   "username": "a_dessy2020"
 },
 {
   "username": "curvychick4"
 },
 {
   "username": "belaly11"
 },
 {
   "username": "melindar_john20"
 },
 {
   "username": "Devel_queen"
 },
 {
   "username": "Sgumm2020"
 },
 {
   "username": "olivia_arit1860"
 },
 {
   "username": "mia633502"
 },
 {
   "username": "Zatanna"
 },
 {
   "username": "kittyb9993"
 },
 {
   "username": "Cora48"
 },
 {
   "username": "Swhitefish"
 },
 {
   "username": "Lily-may949"
 },
 {
   "username": "j_frankeyeyyu20"
 },
 {
   "username": "jicceka_hot"
 },
 {
   "username": "Lily-may949"
 },
 {
   "username": "j_frankeyeyyu20"
 },
 {
   "username": "jicceka_hot"
 },
 {
   "username": "sara761490"
 },
 {
   "username": "sakersbol20"
 },
 {
   "username": "sueera177"
 },
 {
   "username": "a_lun4972"
 },
 {
   "username": "lucyeddie4"
 },
 {
   "username": "Avaava"
 },
 {
   "username": "marietta_harr20"
 },
 {
   "username": "mia-alt"
 },
 {
   "username": "ameliamarti4344"
 },
 {
   "username": "janelle_sandate"
 },
 {
   "username": "alis_sf"
 },
 {
   "username": "belle"
 },
 {
   "username": "carolin3722"
 },
 {
   "username": "Linova3435"
 },
 {
   "username": "Glow_glow2"
 },
 {
   "username": "jessica_jen5823"
 },
 {
   "username": "maryjane_lov3z"
 }
]