[
 {
   "username": "mertalma"
 },
 {
   "username": "Johnnysmith959"
 },
 {
   "username": "sunnyjfkk"
 },
 {
   "username": "hixo"
 },
 {
   "username": "Egbelucy2020"
 },
 {
   "username": "James_scott5535"
 },
 {
   "username": "awesuy"
 },
 {
   "username": "james"
 },
 {
   "username": "Pault14"
 },
 {
   "username": "Zxxd"
 },
 {
   "username": "jacobkrazy"
 },
 {
   "username": "Danny030281"
 },
 {
   "username": "Aaronraj2020"
 },
 {
   "username": "anna_smith6843"
 },
 {
   "username": "mcbezoslarry"
 },
 {
   "username": "Gustavlange"
 },
 {
   "username": "maddy16744"
 },
 {
   "username": "lwurster40"
 },
 {
   "username": "mariano"
 },
 {
   "username": "Itzdixeyy"
 },
 {
   "username": "awesuy"
 },
 {
   "username": "mariano"
 },
 {
   "username": "Johnnysmith959"
 },
 {
   "username": "Inkompetent1854"
 },
 {
   "username": "jasicajasi20"
 },
 {
   "username": "Vgg1"
 },
 {
   "username": "james"
 },
 {
   "username": "Piggyyggip"
 },
 {
   "username": "Dani"
 },
 {
   "username": "laurafowler1468"
 },
 {
   "username": "yogurt"
 },
 {
   "username": "mertalma"
 },
 {
   "username": "sunnyjfkk"
 },
 {
   "username": "hixo"
 },
 {
   "username": "Egbelucy2020"
 },
 {
   "username": "James_scott5535"
 },
 {
   "username": "Pault14"
 },
 {
   "username": "Zxxd"
 },
 {
   "username": "R_db1961"
 },
 {
   "username": "Ed_0098"
 },
 {
   "username": "jasonfox1312"
 },
 {
   "username": "Jesssb_01"
 },
 {
   "username": "Cheekymonkeys12"
 },
 {
   "username": "materra890"
 },
 {
   "username": "Cody07774"
 },
 {
   "username": "mia_harris2659"
 },
 {
   "username": "Tommo2388"
 },
 {
   "username": "jack007uk"
 },
 {
   "username": "John2"
 },
 {
   "username": "Lorah1271"
 },
 {
   "username": "Ttyy"
 },
 {
   "username": "lucas.ww2"
 },
 {
   "username": "Rolphoo"
 },
 {
   "username": "liamocon"
 },
 {
   "username": "Toast2120"
 },
 {
   "username": "Pauls44412"
 },
 {
   "username": "Jack.nevet"
 },
 {
   "username": "Philmarten2020"
 },
 {
   "username": "Jack.nevet"
 },
 {
   "username": "Philmarten2020"
 },
 {
   "username": "luisa"
 },
 {
   "username": "Sohel300"
 },
 {
   "username": "Adam1"
 },
 {
   "username": "Nopenope"
 },
 {
   "username": "Noah_jackson824"
 },
 {
   "username": "Gaming_tp"
 },
 {
   "username": "poop"
 },
 {
   "username": "Ameliaali15"
 },
 {
   "username": "cjxxx97"
 },
 {
   "username": "a_lina7240"
 },
 {
   "username": "sambangs69"
 },
 {
   "username": "Prem_b11"
 },
 {
   "username": "ariii_bre03"
 },
 {
   "username": "shane123"
 },
 {
   "username": "chris_hardy1683"
 },
 {
   "username": "dddd"
 },
 {
   "username": "bwn889"
 },
 {
   "username": "Hello1222"
 },
 {
   "username": "Nige6669"
 },
 {
   "username": "Thatguy3959"
 },
 {
   "username": "Cagdasisklr11"
 },
 {
   "username": "andr3w605"
 },
 {
   "username": "Lukeasorus12rex"
 },
 {
   "username": "werewolf631"
 },
 {
   "username": "Hhh765"
 },
 {
   "username": "Gcjdf"
 },
 {
   "username": "M_darren2020"
 },
 {
   "username": "jara"
 },
 {
   "username": "Samwantcoke"
 },
 {
   "username": "h_baby5760"
 },
 {
   "username": "enchanteddream5"
 },
 {
   "username": "Melville_mensa"
 },
 {
   "username": "jakeminum09"
 },
 {
   "username": "Xhambutux"
 },
 {
   "username": "Sugar_Jaynee"
 },
 {
   "username": "Marvelous.Ak"
 },
 {
   "username": "alexaw222"
 },
 {
   "username": "rebecca1278"
 },
 {
   "username": "Just4thefun3"
 },
 {
   "username": "hulo"
 },
 {
   "username": "Eric2003dude"
 },
 {
   "username": "jorgeloreiro7"
 },
 {
   "username": "Angel"
 },
 {
   "username": "Irishguybored35"
 },
 {
   "username": "hioxo"
 },
 {
   "username": "joshuahhawkins"
 },
 {
   "username": "veselinspasojev"
 },
 {
   "username": "Nprichard7262"
 },
 {
   "username": "bethbenton19"
 },
 {
   "username": "kelly"
 },
 {
   "username": "grace"
 },
 {
   "username": "lmontoya1691"
 },
 {
   "username": "Jrk1408"
 },
 {
   "username": "Ryanalvarez20"
 },
 {
   "username": "jrobison450"
 },
 {
   "username": "Yngtord"
 },
 {
   "username": "Asde3143"
 },
 {
   "username": "Hiii"
 },
 {
   "username": "Hiii"
 },
 {
   "username": "Harry1"
 },
 {
   "username": "Jose2009"
 },
 {
   "username": "Hilroy33"
 },
 {
   "username": "graigdalint2020"
 },
 {
   "username": "Emhitchenn"
 },
 {
   "username": "cwoodruff143"
 },
 {
   "username": "arber.hawk"
 },
 {
   "username": "djepaniah"
 },
 {
   "username": "Raheel"
 },
 {
   "username": "Kuken12"
 },
 {
   "username": "Eyesonmex"
 },
 {
   "username": "TboneT"
 },
 {
   "username": "tom7"
 },
 {
   "username": "Mhibbert30"
 },
 {
   "username": "mianicole0504"
 },
 {
   "username": "Kxjrr20"
 },
 {
   "username": "Tinytim"
 },
 {
   "username": "Ewaskyhigh"
 },
 {
   "username": "BaronVonErik"
 },
 {
   "username": "jamesjam92"
 },
 {
   "username": "hike"
 },
 {
   "username": "kolbybasan"
 },
 {
   "username": "Jatin_praja2815"
 },
 {
   "username": "LaBamba0230"
 },
 {
   "username": "cortsongravis"
 },
 {
   "username": "htht"
 },
 {
   "username": "Dan_por20"
 },
 {
   "username": "Robby_spinn2020"
 },
 {
   "username": "Aye_mate2020"
 },
 {
   "username": "Dave_420dong"
 },
 {
   "username": "Leaned3"
 },
 {
   "username": "Mr_clevlov"
 },
 {
   "username": "Alex_Smith267"
 },
 {
   "username": "Billie_12"
 },
 {
   "username": "theangelalove99"
 },
 {
   "username": "winewil"
 },
 {
   "username": "Karlgilo14"
 },
 {
   "username": "dillonb3012"
 },
 {
   "username": "Addmesnaps1"
 },
 {
   "username": "david20021912"
 },
 {
   "username": "Jjsen"
 },
 {
   "username": "alinaqd2"
 },
 {
   "username": "Hairyman"
 },
 {
   "username": "paris.lola123"
 },
 {
   "username": "Mathieu8212"
 },
 {
   "username": "sosmkr2020"
 },
 {
   "username": "Young_nigga6237"
 },
 {
   "username": "Penny"
 },
 {
   "username": "Isac_br20"
 },
 {
   "username": "Collinkyle"
 },
 {
   "username": "Willadean"
 },
 {
   "username": "Markgg1412"
 },
 {
   "username": "Colton_billin20"
 },
 {
   "username": "Gerard.16"
 },
 {
   "username": "Adrien_mart3863"
 },
 {
   "username": "Mansoorgfa10"
 },
 {
   "username": "Davidjones"
 },
 {
   "username": "raver43va75"
 },
 {
   "username": "lars4952"
 },
 {
   "username": "Morgankiss"
 },
 {
   "username": "Realslimsydea"
 },
 {
   "username": "redheat1090"
 },
 {
   "username": "jennifer_younga"
 },
 {
   "username": "the_chinksee"
 },
 {
   "username": "yzyz456"
 },
 {
   "username": "Jal_2207"
 },
 {
   "username": "gambino94550"
 },
 {
   "username": "Cuterichboy"
 },
 {
   "username": "destiny"
 },
 {
   "username": "brandondante20"
 },
 {
   "username": "Sweetie12345"
 },
 {
   "username": "Awww"
 },
 {
   "username": "itzyoboy_romel"
 },
 {
   "username": "Jdowdy75"
 },
 {
   "username": "hektor_maximus"
 },
 {
   "username": "Muc1106"
 },
 {
   "username": "Reggie22"
 },
 {
   "username": "matt_11"
 },
 {
   "username": "Chrisjpj"
 },
 {
   "username": "matt_11"
 },
 {
   "username": "Chrisjpj"
 },
 {
   "username": "Honiblut2020"
 },
 {
   "username": "Jordant_1010"
 },
 {
   "username": "Nathgp17"
 },
 {
   "username": "hello99"
 },
 {
   "username": "aliyavat5302"
 },
 {
   "username": "Alex"
 },
 {
   "username": "Dianna_lagarde"
 },
 {
   "username": "Dazsmokie"
 },
 {
   "username": "JBVII"
 },
 {
   "username": "W.brett"
 },
 {
   "username": "King_dalton20"
 },
 {
   "username": "asdasd"
 },
 {
   "username": "mo01036"
 },
 {
   "username": "ughy"
 },
 {
   "username": "Asianelson"
 },
 {
   "username": "duiver86"
 },
 {
   "username": "david"
 },
 {
   "username": "sylentkille2020"
 },
 {
   "username": "sylentkille2020"
 },
 {
   "username": "Heavypapa"
 },
 {
   "username": "Badboy1"
 },
 {
   "username": "emiley"
 },
 {
   "username": "mmmasood25"
 },
 {
   "username": "Bensievewrigh"
 },
 {
   "username": "reta"
 },
 {
   "username": "anas34004"
 },
 {
   "username": "Gabbyrose247"
 },
 {
   "username": "driving2hawaii"
 },
 {
   "username": "Loleta"
 },
 {
   "username": "gwiller18"
 },
 {
   "username": "Lover_boy727"
 },
 {
   "username": "Skent709"
 },
 {
   "username": "Noname"
 },
 {
   "username": "Mhaltin"
 },
 {
   "username": "katepattyy"
 },
 {
   "username": "softkittypawzzz"
 },
 {
   "username": "Moha"
 },
 {
   "username": "dbultoc69"
 },
 {
   "username": "shhhh"
 },
 {
   "username": "shivinnnnn"
 },
 {
   "username": "steve"
 },
 {
   "username": "Kiddo159"
 },
 {
   "username": "tommyjj1"
 },
 {
   "username": "linda"
 },
 {
   "username": "Yesdadddy123"
 },
 {
   "username": "Batmann"
 },
 {
   "username": "lamy3565"
 },
 {
   "username": "Vege01"
 },
 {
   "username": "jackbstock"
 },
 {
   "username": "lacikaaa6"
 },
 {
   "username": "Pieboss147"
 },
 {
   "username": "Johngirvan95"
 },
 {
   "username": "furkan.kuzpinar"
 },
 {
   "username": "tomas_v98"
 },
 {
   "username": "what"
 },
 {
   "username": "buddy"
 },
 {
   "username": "Jonathanleitner"
 },
 {
   "username": "Badboywithtoy"
 },
 {
   "username": "Amelia"
 },
 {
   "username": "Billy"
 },
 {
   "username": "High_lyfeeee"
 },
 {
   "username": "sadasd"
 },
 {
   "username": "koberappoort"
 },
 {
   "username": "Wustin9000"
 },
 {
   "username": "xanderedelman8"
 },
 {
   "username": "we.jake"
 },
 {
   "username": "Biglenbo72"
 },
 {
   "username": "Cd285"
 },
 {
   "username": "AlinaByers2020"
 },
 {
   "username": "Sbjyd"
 },
 {
   "username": "Seeme"
 },
 {
   "username": "sholt7710"
 },
 {
   "username": "Kamikaz1998"
 },
 {
   "username": "Hake"
 },
 {
   "username": "Caleb"
 },
 {
   "username": "xander"
 },
 {
   "username": "bidit_pradhan20"
 },
 {
   "username": "zack"
 },
 {
   "username": "bidit_pradhan20"
 },
 {
   "username": "zack"
 },
 {
   "username": "dean2213"
 },
 {
   "username": "gorkem-x"
 },
 {
   "username": "jerrijei"
 },
 {
   "username": "Arlishamason1"
 },
 {
   "username": "Newfrocks_13"
 },
 {
   "username": "smoky_128"
 },
 {
   "username": "Nance"
 },
 {
   "username": "dan12"
 },
 {
   "username": "seftia_xxx"
 },
 {
   "username": "Cuteandrich"
 },
 {
   "username": "michael"
 },
 {
   "username": "kkkkkk"
 },
 {
   "username": "Bidd558"
 },
 {
   "username": "cora4499"
 },
 {
   "username": "Chadgamer0691"
 },
 {
   "username": "Dilco1"
 },
 {
   "username": "H0rny_asfff"
 },
 {
   "username": "Anni"
 },
 {
   "username": "H0rny_asfff"
 },
 {
   "username": "Anni"
 },
 {
   "username": "Lucia_dalton20"
 },
 {
   "username": "Krazzern"
 },
 {
   "username": "Hope"
 },
 {
   "username": "Prince.samiir"
 },
 {
   "username": "lsummerville28"
 },
 {
   "username": "Tonio_13840"
 },
 {
   "username": "jackson"
 },
 {
   "username": "Klmdownmate"
 },
 {
   "username": "Hubris"
 },
 {
   "username": "TonySingh-1977"
 },
 {
   "username": "cuteie_one23"
 },
 {
   "username": "matej.mk"
 },
 {
   "username": "strauss7533"
 },
 {
   "username": "Jane"
 },
 {
   "username": "pretty"
 },
 {
   "username": "jammieryan21"
 },
 {
   "username": "Johnnyd5744"
 },
 {
   "username": "yvanboi"
 },
 {
   "username": "yvanboi"
 },
 {
   "username": "Bbdday"
 },
 {
   "username": "john"
 },
 {
   "username": "Undakuva"
 },
 {
   "username": "Jj11"
 },
 {
   "username": "Janus25"
 },
 {
   "username": "Bigdelyk"
 },
 {
   "username": "j.wheeler2019"
 },
 {
   "username": "Decm.96"
 },
 {
   "username": "beta4ever58"
 },
 {
   "username": "miajohnson851"
 },
 {
   "username": "Not_Tashfic"
 },
 {
   "username": "reus"
 },
 {
   "username": "dxni_26"
 },
 {
   "username": "Buban00"
 },
 {
   "username": "sugarmummy4439"
 },
 {
   "username": "Nurdiallo93"
 },
 {
   "username": "Milfhunter6950"
 },
 {
   "username": "wilson-shannon"
 },
 {
   "username": "Mikeydonoo"
 },
 {
   "username": "Mikeydonoo"
 },
 {
   "username": "Jack8108"
 },
 {
   "username": "robin15123"
 },
 {
   "username": "luke-white1234"
 },
 {
   "username": "Lifeis_f2020"
 },
 {
   "username": "mikepr777"
 },
 {
   "username": "Kelleyh"
 },
 {
   "username": "Slimko"
 },
 {
   "username": "Jdoe1126"
 },
 {
   "username": "honey.cocaines"
 },
 {
   "username": "brianlong7610"
 },
 {
   "username": "Lewisginger123"
 },
 {
   "username": "teodor_bell22"
 },
 {
   "username": "John121"
 },
 {
   "username": "sarahopkinx"
 },
 {
   "username": "Matthew_w59"
 },
 {
   "username": "harry"
 },
 {
   "username": "Jacksavannah6"
 },
 {
   "username": "Clari.note"
 },
 {
   "username": "soccerguy"
 },
 {
   "username": "soccerguy"
 },
 {
   "username": "Iceicegabey3"
 },
 {
   "username": "sabita9445"
 },
 {
   "username": "Tecta"
 },
 {
   "username": "Manualusmaximus"
 },
 {
   "username": "jthomas6987"
 },
 {
   "username": "chrisabrams3"
 },
 {
   "username": "betts4465"
 },
 {
   "username": "Hjjd"
 },
 {
   "username": "chelsea.niniio"
 },
 {
   "username": "catson7444"
 },
 {
   "username": "Jhillier226"
 },
 {
   "username": "bre2221"
 },
 {
   "username": "Vaya"
 },
 {
   "username": "breanna5581"
 },
 {
   "username": "toto576"
 },
 {
   "username": "anius.kyle"
 },
 {
   "username": "bigmike"
 },
 {
   "username": "Jayz"
 },
 {
   "username": "t_yktvv"
 },
 {
   "username": "t_yktvv"
 },
 {
   "username": "Kaneki6080"
 },
 {
   "username": "hrw.willis0305"
 },
 {
   "username": "Shhhhh"
 },
 {
   "username": "Selyasm2019"
 },
 {
   "username": "Tom123"
 },
 {
   "username": "emma_83678"
 },
 {
   "username": "d_reeze"
 },
 {
   "username": "j_williams0704"
 },
 {
   "username": "Brandon_s8675"
 },
 {
   "username": "max069-of"
 },
 {
   "username": "jones24"
 },
 {
   "username": "James200117"
 },
 {
   "username": "greengiant180"
 },
 {
   "username": "XxtylordxX"
 },
 {
   "username": "mslammmasa2"
 },
 {
   "username": "noah"
 },
 {
   "username": "Olderguy36"
 },
 {
   "username": "Omarion-chip"
 },
 {
   "username": "Andyg5979"
 },
 {
   "username": "Omarion-chip"
 },
 {
   "username": "Andyg5979"
 },
 {
   "username": "lillyrose1"
 },
 {
   "username": "Pet_ers19"
 },
 {
   "username": "Thorishere1"
 },
 {
   "username": "rjm_hrithik"
 },
 {
   "username": "Inter"
 },
 {
   "username": "Bbchulk"
 },
 {
   "username": "rosiemoore13"
 },
 {
   "username": "hdhd"
 },
 {
   "username": "jordanmasaki"
 },
 {
   "username": "evasimon8046"
 },
 {
   "username": "bigjackson77"
 },
 {
   "username": "louiseac20"
 },
 {
   "username": "Godstogood"
 },
 {
   "username": "Jorgeribeiro77"
 },
 {
   "username": "Anythinggoes12"
 },
 {
   "username": "Marais456"
 },
 {
   "username": "Ameliadavis2954"
 },
 {
   "username": "miks1208"
 }
]