Captcha:
key: 6LcFqv4ZAAAAAJVznpuCzrQNinnZch5QHrDKMbvQ
secret: 6LcFqv4ZAAAAAGJmcwTtDiMvGAL3RPYyIoGFKviA

//https://www.itsolutionstuff.com/post/laravel-6-google-recaptcha-form-validation-exampleexample.html
//https://paulund.co.uk/how-to-add-google-recaptcha-to-laravel

//validate snap regex
$re = '/^(?!.*\.\.|.*\_\_|.*\-\-)(?!.*\.$|.*\_$|.*\-$)(?!.*\.\-|.*\-\.|.*\-\_|.*\_\-|.*\.\_|.*\_\.)[a-zA-Z]+[\w.-][0-9A-z]{0,15}$/i';
$str = '';

preg_match($re, $str, $matches, PREG_OFFSET_CAPTURE, 0);

// Print the entire match result
var_dump($matches);
